{
    "project_type": "javascript",

    "debugMode" : 1,
    "showFPS" : true,
    "frameRate" : 60,
    "noCache" : false,
    "id" : "gameCanvas",
    "renderMode" : 0,
    "engineDir":"frameworks/cocos2d-html5",

    "modules" : ["cocos2d"],

    "jsList" : [
        "src/resource.js",
        "src/GameLayer.js",
        "src/Field.js",
        "src/Block.js"
    ]
}
